<?xml version="1.0" encoding="UTF-8" standalone="no"?> <svg xmlns="http://www.w3.org/2000/svg" xmlns:xlink="http://www.w3.org/1999/xlink" width="434pt" height="411pt" viewBox="0.00 0.00 434 411.2">
<g id="graph0" class="graph" transform="translate(4, 407.20001220703125)">
<title>%0</title>
<polygon fill="#ffffff" stroke="transparent" points="-4,4 -4,-407.2 430,-407.2 430,4 -4,4"></polygon>
<g id="clust1" class="cluster">
<title>cluster</title>
<polygon fill="#234178" fill-opacity="0.184314" stroke="#000000" points="8,-8 8,-395.2 418,-395.2 418,-8 8,-8"></polygon>
<text text-anchor="middle" x="213" y="-378.6" font-family="Times,serif" font-size="14.00" fill="#000000">Global</text>
</g>
<g id="clust2" class="cluster">
<title>cluster_1</title>
<polygon fill="#234178" fill-opacity="0.184314" stroke="#000000" points="49,-227.6 49,-318.4 119,-318.4 119,-227.6 49,-227.6"></polygon>
<text text-anchor="middle" x="84" y="-301.8" font-family="Times,serif" font-size="14.00" fill="#000000">System</text>
</g>
<g id="clust3" class="cluster">
<title>cluster_2</title>
<polygon fill="#234178" fill-opacity="0.184314" stroke="#000000" points="16,-16 16,-133.6 410,-133.6 410,-16 16,-16"></polygon>
<text text-anchor="middle" x="213" y="-117" font-family="Times,serif" font-size="14.00" fill="#000000">CellType[cell]</text>
</g>
<g id="clust4" class="cluster">
<title>cluster_cpm2</title>
<polygon fill="#234178" fill-opacity="0.184314" stroke="#000000" points="89,-24 89,-100.8 183,-100.8 183,-24 89,-24"></polygon>
<text text-anchor="middle" x="136" y="-84.2" font-family="Times,serif" font-size="14.00" fill="#000000">CPM plugins</text>
</g>
<!-- CPM_0_1 -->
<g id="node1" class="node">
<title>CPM_0_1</title>
<g id="a_node1">">
<polygon fill="#fffea3" stroke="transparent" points="265.5,-199.6 210.5,-199.6 210.5,-141.6 265.5,-141.6 265.5,-199.6"></polygon>
<text text-anchor="start" x="222.6623" y="-178.1" font-family="times" font-size="15.00" fill="#000000">CPM</text>
<text text-anchor="start" x="234.75" y="-154.1" font-family="times" font-size="15.00" fill="#000000">1</text>
<polygon fill="#000000" stroke="#000000" points="219,-170.6 219,-170.6 258,-170.6 258,-170.6 219,-170.6"></polygon>
<polygon fill="none" stroke="#000000" points="218.5,-145.6 218.5,-195.6 257.5,-195.6 257.5,-145.6 218.5,-145.6"></polygon>
</g>
</g>
<!-- cell_center_0 -->

<!-- CPM_0_1&#45;&gt;cell_center_0 -->

<!-- cell_type_0 -->

<!-- CPM_0_1&#45;&gt;cell_type_0 -->
<g id="edge2" class="edge">
<title style="">CPM_0_1-&gt;cell_center_2</title>
<path fill="none" stroke="#8f100d" stroke-width="3" d="M265.5182,-153.9903C274.158,-148.1149 283.4127,-141.0889 291,-133.6 308.432,-116.394 324.4015,-93.6396 335.4752,-76.2146"></path>
<polygon fill="#8f100d" stroke="#8f100d" stroke-width="3" points="338.4948,-77.9866 340.8016,-67.6459 332.5497,-74.2911 338.4948,-77.9866"></polygon>
</g>
<!-- Chemotaxis_2 -->
<g id="node5" class="node">
<title>Chemotaxis_2</title>
<g id="a_node5">">
<polygon fill="#fffea3" stroke="transparent" points="175.5,-68 96.5,-68 96.5,-32 175.5,-32 175.5,-68"></polygon>
<text text-anchor="start" x="100.6703" y="-45.5" font-family="times" font-size="15.00" fill="#000000">Chemotaxis</text>
<polygon fill="none" stroke="#000000" points="96.5,-37 96.5,-63 175.5,-63 175.5,-37 96.5,-37"></polygon>
</g>
</g>
<!-- CPM_0_1&#45;&gt;Chemotaxis_2 -->
<g id="edge1" class="edge">
<title>CPM_0_1-&gt;Chemotaxis_2</title>
<path fill="none" stroke="#38568c" stroke-dasharray="5,2" d="M210.4254,-156.9743C199.9887,-150.8627 188.5715,-142.9176 180,-133.6 171.1882,-124.0212 163.6115,-112.3479 157.3509,-100.799"></path>
</g><g id="edge3" class="edge">
<title style="">CPM_0_1-&gt;cell_type_2</title>
<path fill="none" stroke="#8f100d" stroke-width="3" d="M238,-141.4061C238,-122.203 238,-97.204 238,-78.2045"></path>
<polygon fill="#8f100d" stroke="#8f100d" stroke-width="3" points="241.5001,-78.0713 238,-68.0713 234.5001,-78.0714 241.5001,-78.0713"></polygon>
</g>
<!-- Gnuplotter_0_100 -->

<!-- Logger_0_10000 -->

<!-- c_0 -->
<g id="node2" class="node">
<title>c_0</title>
<g id="a_node2">
<ellipse fill="#d3d247" stroke="#000000" cx="117" cy="-170.6" rx="27" ry="18"></ellipse>
<text text-anchor="middle" x="117" y="-166.4" font-family="Times,serif" font-size="14.00" fill="#000000">c</text>
</g>
</g>
<!-- c_0&#45;&gt;Gnuplotter_0_100 -->
<g id="node4" class="node">
<title style="">System_1_1</title>
<g id="a_node4">" style="">
<polygon fill="#fffea3" stroke="transparent" points="111,-285.6 57,-285.6 57,-235.6 111,-235.6 111,-285.6" style=""></polygon>
<text text-anchor="start" x="61.9163" y="-268.1" font-family="times" font-size="15.00" fill="#000000" style="">System</text>
<text text-anchor="start" x="80.25" y="-244.1" font-family="times" font-size="15.00" fill="#000000" style="">1</text>
<polygon fill="#000000" stroke="#000000" points="58,-260.6 58,-260.6 110,-260.6 110,-260.6 58,-260.6" style=""></polygon>
<polygon fill="none" stroke="#000000" points="58,-235.6 58,-285.6 110,-285.6 110,-235.6 58,-235.6" style=""></polygon>
</g>
</g>
<!-- c_0&#45;&gt;Chemotaxis_2 -->
<g id="edge5" class="edge">
<title>c_0-&gt;Chemotaxis_2</title>
<path fill="none" stroke="#112c5f" stroke-width="2" d="M119.8445,-152.545C122.9367,-132.9178 127.9194,-101.2907 131.5344,-78.3449"></path>
<polygon fill="#112c5f" stroke="#112c5f" stroke-width="2" points="135.0371,-78.6013 133.1361,-68.1785 128.1224,-77.5119 135.0371,-78.6013"></polygon>
</g><g id="edge6" class="edge">
<title style="">m_0-&gt;System_1_1</title>
<path fill="none" stroke="#112c5f" stroke-width="2" d="M84,-326.2166C84,-317.3353 84,-306.3343 84,-295.8944"></path>
<polygon fill="#112c5f" stroke="#112c5f" stroke-width="2" points="87.5001,-295.741 84,-285.741 80.5001,-295.741 87.5001,-295.741"></polygon>
</g>
<!-- m_0 -->
<g id="node3" class="node">
<title>m_0</title>
<g id="a_node3">
<ellipse fill="#d3d247" stroke="#000000" cx="84" cy="-344.4" rx="27" ry="18" style=""></ellipse>
<text text-anchor="middle" x="84" y="-340.2" font-family="Times,serif" font-size="14.00" fill="#000000" style="">m</text>
</g>
</g><g id="edge4" class="edge">
<title style="">System_1_1-&gt;c_0</title>
<path fill="none" stroke="#8f100d" stroke-width="3" d="M93.1923,-235.53C97.5131,-223.746 102.6718,-209.6769 107.0807,-197.6526" style=""></path>
<polygon fill="#8f100d" stroke="#8f100d" stroke-width="3" points="110.4165,-198.7218 110.573,-188.1281 103.8443,-196.312 110.4165,-198.7218" style=""></polygon>
</g>
<!-- m_0&#45;&gt;Gnuplotter_0_100 -->

<!-- m_0&#45;&gt;Logger_0_10000 -->
<g id="edge7" class="edge">
<title style="">m_2-&gt;System_1_1</title>
<path fill="none" stroke="#112c5f" stroke-width="2" d="M51.7235,-68.121C53.0981,-96.4199 56.8176,-152.7234 66,-199.6 67.6782,-208.167 70.0366,-217.2607 72.4951,-225.7385"></path>
<polygon fill="#112c5f" stroke="#112c5f" stroke-width="2" points="69.1525,-226.7769 75.3923,-235.3394 75.854,-224.7546 69.1525,-226.7769"></polygon>
</g>
<g id="node6" class="node">
<title>cell_center_2</title>
<ellipse fill="#b5b426" stroke="#000000" cx="351" cy="-50" rx="50.9572" ry="18"></ellipse>
<text text-anchor="middle" x="351" y="-45.8" font-family="Times,serif" font-size="14.00" fill="#000000">cell.center</text>
</g><g id="node7" class="node">
<title>cell_type_2</title>
<g id="a_node7">
<ellipse fill="#d3d247" stroke="#000000" cx="238" cy="-50" rx="44.0377" ry="18"></ellipse>
<text text-anchor="middle" x="238" y="-45.8" font-family="Times,serif" font-size="14.00" fill="#000000">cell.type</text>
</g>
</g><g id="node8" class="node">
<title>m_2</title>
<g id="a_node8">
<ellipse fill="#d3d247" stroke="#000000" cx="51" cy="-50" rx="27" ry="18"></ellipse>
<text text-anchor="middle" x="51" y="-45.8" font-family="Times,serif" font-size="14.00" fill="#000000">m</text>
</g>
</g></g>
</svg>