<?xml version="1.0" encoding="UTF-8" standalone="no"?> <svg xmlns="http://www.w3.org/2000/svg" xmlns:xlink="http://www.w3.org/1999/xlink" width="936pt" height="637pt" viewBox="0.00 0.00 936 637.2">
<g id="graph0" class="graph" transform="translate(4, 633.2000122070312)">
<title>%0</title>
<polygon fill="#ffffff" stroke="transparent" points="-4,4 -4,-633.2 932,-633.2 932,4 -4,4"></polygon>
<g id="clust1" class="cluster">
<title>cluster</title>
<polygon fill="#234178" fill-opacity="0.184314" stroke="#000000" points="8,-8 8,-621.2 920,-621.2 920,-8 8,-8"></polygon>
<text text-anchor="middle" x="464" y="-604.6" font-family="Times,serif" font-size="14.00" fill="#000000">Global</text>
</g>
<g id="clust3" class="cluster">
<title>cluster_2</title>
<polygon fill="#234178" fill-opacity="0.184314" stroke="#000000" points="170,-94 170,-588.4 654,-588.4 654,-94 170,-94"></polygon>
<text text-anchor="middle" x="412" y="-571.8" font-family="Times,serif" font-size="14.00" fill="#000000">CellType[BarbedEnd]</text>
</g>
<g id="clust4" class="cluster">
<title>cluster_cpm2</title>
<polygon fill="#234178" fill-opacity="0.184314" stroke="#000000" points="178,-288.8 178,-379.6 398,-379.6 398,-288.8 178,-288.8"></polygon>
<text text-anchor="middle" x="288" y="-363" font-family="Times,serif" font-size="14.00" fill="#000000">CPM plugins</text>
</g>
<g id="clust6" class="cluster">
<title>cluster_4</title>
<polygon fill="#234178" fill-opacity="0.184314" stroke="#000000" points="374,-166 374,-280.8 560,-280.8 560,-166 374,-166"></polygon>
<text text-anchor="middle" x="467" y="-264.2" font-family="Times,serif" font-size="14.00" fill="#000000">System</text>
</g>
<!-- Gnuplotter_0_20 -->
<g id="node1" class="node">
<title style="">Gnuplotter_0_20</title>
<g id="a_node1">">
<polygon fill="#fffea3" stroke="transparent" points="162,-236 90,-236 90,-186 162,-186 162,-236" style=""></polygon>
<text text-anchor="start" x="93.507" y="-218.5" font-family="times" font-size="15.00" fill="#000000">Gnuplotter</text>
<text text-anchor="start" x="118.5" y="-194.5" font-family="times" font-size="15.00" fill="#000000">20</text>
<polygon fill="#000000" stroke="#000000" points="90,-211 90,-211 162,-211 162,-211 90,-211" style=""></polygon>
<polygon fill="none" stroke="#000000" points="90,-186 90,-236 162,-236 162,-186 90,-186" style=""></polygon>
</g>
</g>
<!-- Logger_0_10 -->
<g id="node2" class="node">
<title style="">Logger_0_10</title>
<g id="a_node2">">
<polygon fill="#fffea3" stroke="transparent" points="747,-66 693,-66 693,-16 747,-16 747,-66" style=""></polygon>
<text text-anchor="start" x="698.8423" y="-48.5" font-family="times" font-size="15.00" fill="#000000">Logger</text>
<text text-anchor="start" x="713" y="-24.5" font-family="times" font-size="15.00" fill="#000000">10</text>
<polygon fill="#000000" stroke="#000000" points="695,-41 695,-41 746,-41 746,-41 695,-41" style=""></polygon>
<polygon fill="none" stroke="#000000" points="694.5,-16 694.5,-66 745.5,-66 745.5,-16 694.5,-16" style=""></polygon>
</g>
</g>
<!-- CPM_0_1 -->
<g id="node3" class="node">
<title>CPM_0_1</title>
<g id="a_node3">">
<polygon fill="#fffea3" stroke="transparent" points="744.5,-445.6 689.5,-445.6 689.5,-387.6 744.5,-387.6 744.5,-445.6"></polygon>
<text text-anchor="start" x="701.6623" y="-424.1" font-family="times" font-size="15.00" fill="#000000">CPM</text>
<text text-anchor="start" x="713.75" y="-400.1" font-family="times" font-size="15.00" fill="#000000">1</text>
<polygon fill="#000000" stroke="#000000" points="698,-416.6 698,-416.6 737,-416.6 737,-416.6 698,-416.6"></polygon>
<polygon fill="none" stroke="#000000" points="697.5,-391.6 697.5,-441.6 736.5,-441.6 736.5,-391.6 697.5,-391.6"></polygon>
</g>
</g>
<!-- cell_center_0 -->
<g id="node4" class="node">
<title style="">cell_center_0</title>
<ellipse fill="#b5b426" stroke="#000000" cx="717" cy="-321.8" rx="50.9588" ry="18" style=""></ellipse>
<ellipse fill="none" stroke="#000000" cx="717" cy="-321.8" rx="54.9572" ry="22" style=""></ellipse>
<text text-anchor="middle" x="717" y="-317.6" font-family="Times,serif" font-size="14.00" fill="#000000">cell.center</text>
</g>
<!-- CPM_0_1&#45;&gt;cell_center_0 -->
<g id="edge2" class="edge">
<title style="">CPM_0_1-&gt;cell_center_0</title>
<path fill="none" stroke="#8f100d" stroke-width="3" d="M717,-387.3833C717,-376.8563 717,-364.9189 717,-354.1408"></path>
<polygon fill="#8f100d" stroke="#8f100d" stroke-width="3" points="720.5001,-353.8442 717,-343.8442 713.5001,-353.8442 720.5001,-353.8442"></polygon>
</g>
<!-- cell_type_0 -->
<g id="node7" class="node">
<title style="">cell_type_0</title>
<ellipse fill="#d3d247" stroke="#000000" cx="838" cy="-321.8" rx="44.0361" ry="18" style=""></ellipse>
<ellipse fill="none" stroke="#000000" cx="838" cy="-321.8" rx="48.0377" ry="22" style=""></ellipse>
<text text-anchor="middle" x="838" y="-317.6" font-family="Times,serif" font-size="14.00" fill="#000000">cell.type</text>
</g>
<!-- CPM_0_1&#45;&gt;cell_type_0 -->
<g id="edge3" class="edge">
<title style="">CPM_0_1-&gt;cell_type_0</title>
<path fill="none" stroke="#8f100d" stroke-width="3" d="M744.8083,-402.6507C756.4453,-396.2824 769.8322,-388.2366 781,-379.6 792.3715,-370.8059 803.7303,-359.8437 813.2811,-349.8372"></path>
<polygon fill="#8f100d" stroke="#8f100d" stroke-width="3" points="815.9369,-352.1214 820.2026,-342.4232 810.8201,-347.3445 815.9369,-352.1214"></polygon>
</g>
<!-- DirectedMotion_4858737452384379042 -->
<g id="node13" class="node">
<title style="">DirectedMotion_4858737452384379042</title>
<g id="a_node13">">
<polygon fill="#fffea3" stroke="transparent" points="390.5,-346.8 185.5,-346.8 185.5,-296.8 390.5,-296.8 390.5,-346.8" style=""></polygon>
<text text-anchor="start" x="240.5975" y="-329.3" font-family="times" font-size="15.00" fill="#000000">DirectedMotion</text>
<text text-anchor="start" x="189.8428" y="-306.3" font-family="times" font-style="italic" font-size="15.00" fill="#000000">"Move right/left (+1, -1) and up"</text>
<polygon fill="none" stroke="#000000" points="185.5,-296.8 185.5,-346.8 390.5,-346.8 390.5,-296.8 185.5,-296.8" style=""></polygon>
</g>
</g>
<!-- CPM_0_1&#45;&gt;DirectedMotion_4858737452384379042 -->
<g id="edge1" class="edge">
<title style="">CPM_0_1-&gt;DirectedMotion_4858737452384379042</title>
<path fill="none" stroke="#38568c" d="M689.4267,-400.026C679.8169,-395.0809 668.7442,-390.2706 658,-387.6 601.2552,-373.4953 451.4633,-394.7925 395,-379.6"></path>
</g>
<!-- cell_center_x_0 -->
<g id="node5" class="node">
<title style="">cell_center_x_0</title>
<ellipse fill="#d3d247" stroke="#000000" cx="854" cy="-211" rx="58.4435" ry="18" style=""></ellipse>
<text text-anchor="middle" x="854" y="-206.8" font-family="Times,serif" font-size="14.00" fill="#000000">cell.center.x</text>
</g>
<!-- cell_center_0&#45;&gt;cell_center_x_0 -->
<g id="edge9" class="edge">
<title style="">cell_center_0-&gt;cell_center_x_0</title>
<path fill="none" stroke="#38568c" stroke-dasharray="5,2" d="M750.9824,-304.3974C762.8419,-297.6863 775.942,-289.5222 787,-280.8 806.9145,-265.092 826.6465,-243.63 839.4827,-228.667" style=""></path>
</g>
<!-- cell_center_y_0 -->
<g id="node6" class="node">
<title style="">cell_center_y_0</title>
<ellipse fill="#d3d247" stroke="#000000" cx="720" cy="-211" rx="58.4435" ry="18" style=""></ellipse>
<text text-anchor="middle" x="720" y="-206.8" font-family="Times,serif" font-size="14.00" fill="#000000">cell.center.y</text>
</g>
<!-- cell_center_0&#45;&gt;cell_center_y_0 -->
<g id="edge10" class="edge">
<title style="">cell_center_0-&gt;cell_center_y_0</title>
<path fill="none" stroke="#38568c" stroke-dasharray="5,2" d="M717.5999,-299.6443C718.1607,-278.9301 718.988,-248.3763 719.5102,-229.091" style=""></path>
</g>
<!-- cell_center_x_0&#45;&gt;Logger_0_10 -->
<g id="edge13" class="edge">
<title style="">cell_center_x_0-&gt;Logger_0_10</title>
<path fill="none" stroke="#112c5f" stroke-width="2" d="M840.1644,-193.4473C818.064,-165.4095 774.4246,-110.0461 746.2627,-74.3183" style=""></path>
<polygon fill="#112c5f" stroke="#112c5f" stroke-width="2" points="748.7463,-71.8153 739.8071,-66.1284 743.2488,-76.1486 748.7463,-71.8153" style=""></polygon>
</g>
<!-- cell_center_y_0&#45;&gt;Logger_0_10 -->
<g id="edge15" class="edge">
<title style="">cell_center_y_0-&gt;Logger_0_10</title>
<path fill="none" stroke="#112c5f" stroke-width="2" d="M720,-192.807C720,-165.1726 720,-112.0881 720,-76.5995" style=""></path>
<polygon fill="#112c5f" stroke="#112c5f" stroke-width="2" points="723.5001,-76.1984 720,-66.1984 716.5001,-76.1985 723.5001,-76.1984" style=""></polygon>
</g>
<!-- nd_0 -->
<g id="node8" class="node">
<title style="">nd_0</title>
<ellipse fill="#d3d247" stroke="#000000" cx="131" cy="-321.8" rx="27" ry="18" style=""></ellipse>
<ellipse fill="none" stroke="#000000" cx="131" cy="-321.8" rx="31" ry="22" style=""></ellipse>
<text text-anchor="middle" x="131" y="-317.6" font-family="Times,serif" font-size="14.00" fill="#000000">nd</text>
</g>
<!-- nd_0&#45;&gt;Gnuplotter_0_20 -->
<g id="edge17" class="edge">
<title style="">nd_0-&gt;Gnuplotter_0_20</title>
<path fill="none" stroke="#112c5f" stroke-width="2" d="M130.0002,-299.6443C129.3158,-284.4777 128.3933,-264.0362 127.6067,-246.605" style=""></path>
<polygon fill="#112c5f" stroke="#112c5f" stroke-width="2" points="131.0852,-246.0468 127.1379,-236.2148 124.0923,-246.3624 131.0852,-246.0468" style=""></polygon>
</g>
<!-- size_0 -->
<g id="node9" class="node">
<title>size_0</title>
<ellipse fill="#b5b426" stroke="#000000" cx="49" cy="-416.6" rx="27" ry="18"></ellipse>
<text text-anchor="middle" x="49" y="-412.4" font-family="Times,serif" font-size="14.00" fill="#000000">size</text>
</g>
<!-- size_x_0 -->
<g id="node10" class="node">
<title style="">size_x_0</title>
<ellipse fill="#d3d247" stroke="#000000" cx="49" cy="-321.8" rx="33.0851" ry="18" style=""></ellipse>
<text text-anchor="middle" x="49" y="-317.6" font-family="Times,serif" font-size="14.00" fill="#000000">size.x</text>
</g>
<!-- size_0&#45;&gt;size_x_0 -->
<g id="edge20" class="edge">
<title style="">size_0-&gt;size_x_0</title>
<path fill="none" stroke="#38568c" d="M49,-398.3216C49,-381.5347 49,-356.7914 49,-340.0223"></path>
</g>
<!-- System_4373609053296351035 -->
<g id="node20" class="node">
<title style="">System_4373609053296351035</title>
<g id="a_node20">">
<polygon fill="#fffea3" stroke="transparent" points="552,-248 382,-248 382,-174 552,-174 552,-248" style=""></polygon>
<text text-anchor="start" x="444.9163" y="-230.5" font-family="times" font-size="15.00" fill="#000000">System</text>
<text text-anchor="start" x="385.685" y="-207.5" font-family="times" font-style="italic" font-size="15.00" fill="#000000">"x coordinate modulo 200"</text>
<text text-anchor="start" x="463.25" y="-182.5" font-family="times" font-size="15.00" fill="#000000">1</text>
<polygon fill="#000000" stroke="#000000" points="382,-199 382,-199 552,-199 552,-199 382,-199" style=""></polygon>
<polygon fill="none" stroke="#000000" points="382,-174 382,-248 552,-248 552,-174 382,-174" style=""></polygon>
</g>
</g>
<!-- size_x_0&#45;&gt;System_4373609053296351035 -->
<g id="edge21" class="edge">
<title style="">size_x_0-&gt;System_4373609053296351035</title>
<path fill="none" stroke="#112c5f" stroke-width="2" d="M64.6458,-305.5743C71.9728,-299.089 81.2328,-292.3312 91,-288.8 151.0015,-267.107 317.9888,-302.4661 378,-280.8 393.907,-275.057 409.1842,-265.2781 422.4549,-254.8288" style=""></path>
<polygon fill="#112c5f" stroke="#112c5f" stroke-width="2" points="424.9394,-257.3174 430.4462,-248.2661 420.4969,-251.9078 424.9394,-257.3174" style=""></polygon>
</g>
<!-- CellDeath_14625592242627802402 -->
<g id="node11" class="node">
<title style="">CellDeath_14625592242627802402</title>
<g id="a_node11">">
<polygon fill="#fffea3" stroke="transparent" points="540,-555.6 336,-555.6 336,-481.6 540,-481.6 540,-555.6" style=""></polygon>
<text text-anchor="start" x="407.5935" y="-538.1" font-family="times" font-size="15.00" fill="#000000">CellDeath</text>
<text text-anchor="start" x="339.813" y="-515.1" font-family="times" font-style="italic" font-size="15.00" fill="#000000">"some death to avoid too many "</text>
<text text-anchor="start" x="434.25" y="-490.1" font-family="times" font-size="15.00" fill="#000000">1</text>
<polygon fill="#000000" stroke="#000000" points="336,-506.6 336,-506.6 540,-506.6 540,-506.6 336,-506.6" style=""></polygon>
<polygon fill="none" stroke="#000000" points="336,-481.6 336,-555.6 540,-555.6 540,-481.6 336,-481.6" style=""></polygon>
</g>
</g>
<!-- cell_center_2 -->
<g id="node14" class="node">
<title>cell_center_2</title>
<ellipse fill="#b5b426" stroke="#000000" cx="452" cy="-416.6" rx="50.9572" ry="18"></ellipse>
<text text-anchor="middle" x="452" y="-412.4" font-family="Times,serif" font-size="14.00" fill="#000000">cell.center</text>
</g>
<!-- CellDeath_14625592242627802402&#45;&gt;cell_center_2 -->
<g id="edge4" class="edge">
<title style="">CellDeath_14625592242627802402-&gt;cell_center_2</title>
<path fill="none" stroke="#8f100d" stroke-width="3" d="M443.0939,-481.4871C444.7529,-469.4006 446.5664,-456.1876 448.1215,-444.8578" style=""></path>
<polygon fill="#8f100d" stroke="#8f100d" stroke-width="3" points="451.6274,-445.0534 449.5198,-434.6704 444.6924,-444.1015 451.6274,-445.0534" style=""></polygon>
</g>
<!-- CellDivision_11380206454551753236 -->
<g id="node12" class="node">
<title style="">CellDivision_11380206454551753236</title>
<g id="a_node12">">
<polygon fill="#fffea3" stroke="transparent" points="318,-555.6 178,-555.6 178,-481.6 318,-481.6 318,-555.6" style=""></polygon>
<text text-anchor="start" x="209.6668" y="-538.1" font-family="times" font-size="15.00" fill="#000000">CellDivision</text>
<text text-anchor="start" x="181.6813" y="-515.1" font-family="times" font-style="italic" font-size="15.00" fill="#000000">"Assymetric division"</text>
<text text-anchor="start" x="244.25" y="-490.1" font-family="times" font-size="15.00" fill="#000000">1</text>
<polygon fill="#000000" stroke="#000000" points="178,-506.6 178,-506.6 318,-506.6 318,-506.6 178,-506.6" style=""></polygon>
<polygon fill="none" stroke="#000000" points="178,-481.6 178,-555.6 318,-555.6 318,-481.6 178,-481.6" style=""></polygon>
</g>
</g>
<!-- CellDivision_11380206454551753236&#45;&gt;cell_center_2 -->
<g id="edge5" class="edge">
<title style="">CellDivision_11380206454551753236-&gt;cell_center_2</title>
<path fill="none" stroke="#8f100d" stroke-width="3" d="M318.2052,-483.4974C350.0625,-467.5687 386.5175,-449.3413 413.321,-435.9395" style=""></path>
<polygon fill="#8f100d" stroke="#8f100d" stroke-width="3" points="414.9968,-439.0148 422.3758,-431.4121 411.8663,-432.7538 414.9968,-439.0148" style=""></polygon>
</g>
<!-- nd_2 -->
<g id="node17" class="node">
<title>nd_2</title>
<g id="a_node17">
<ellipse fill="#d3d247" stroke="#000000" cx="208" cy="-416.6" rx="27" ry="18"></ellipse>
<text text-anchor="middle" x="208" y="-412.4" font-family="Times,serif" font-size="14.00" fill="#000000">nd</text>
</g>
</g>
<!-- CellDivision_11380206454551753236&#45;&gt;nd_2 -->
<g id="edge6" class="edge">
<title style="">CellDivision_11380206454551753236-&gt;nd_2</title>
<path fill="none" stroke="#8f100d" stroke-width="3" d="M233.4459,-481.4871C228.5393,-468.9752 223.1592,-455.2561 218.6151,-443.6685" style=""></path>
<polygon fill="#8f100d" stroke="#8f100d" stroke-width="3" points="221.7792,-442.15 214.8698,-434.1181 215.2624,-444.7057 221.7792,-442.15" style=""></polygon>
</g>
<!-- s_2 -->
<g id="node18" class="node">
<title>s_2</title>
<g id="a_node18">
<ellipse fill="#d3d247" stroke="#000000" cx="283" cy="-416.6" rx="27" ry="18"></ellipse>
<text text-anchor="middle" x="283" y="-412.4" font-family="Times,serif" font-size="14.00" fill="#000000">s</text>
</g>
</g>
<!-- CellDivision_11380206454551753236&#45;&gt;s_2 -->
<g id="edge7" class="edge">
<title style="">CellDivision_11380206454551753236-&gt;s_2</title>
<path fill="none" stroke="#8f100d" stroke-width="3" d="M260.7348,-481.4871C264.9979,-469.0633 269.6694,-455.4492 273.6277,-443.9136" style=""></path>
<polygon fill="#8f100d" stroke="#8f100d" stroke-width="3" points="276.9592,-444.9881 276.8944,-434.3935 270.3382,-442.7161 276.9592,-444.9881" style=""></polygon>
</g>
<!-- cell_center_2&#45;&gt;cell_center_0 -->
<g id="edge11" class="edge">
<title style="">cell_center_2-&gt;cell_center_0</title>
<path fill="none" stroke="#38568c" d="M476.5132,-400.7677C485.7117,-395.6238 496.4897,-390.4984 507,-387.6 539.3935,-378.667 627.2365,-393.1183 658,-379.6 675.7225,-371.8123 691.1607,-356.1645 701.7953,-343.1122"></path>
</g>
<!-- cell_center_x_2 -->
<g id="node15" class="node">
<title style="">cell_center_x_2</title>
<ellipse fill="#d3d247" stroke="#000000" cx="467" cy="-321.8" rx="58.4435" ry="18" style=""></ellipse>
<text text-anchor="middle" x="467" y="-317.6" font-family="Times,serif" font-size="14.00" fill="#000000">cell.center.x</text>
</g>
<!-- cell_center_2&#45;&gt;cell_center_x_2 -->
<g id="edge12" class="edge">
<title style="">cell_center_2-&gt;cell_center_x_2</title>
<path fill="none" stroke="#38568c" d="M454.8922,-398.3216C457.5483,-381.5347 461.4634,-356.7914 464.1167,-340.0223"></path>
</g>
<!-- cell_center_x_2&#45;&gt;System_4373609053296351035 -->
<g id="edge14" class="edge">
<title style="">cell_center_x_2-&gt;System_4373609053296351035</title>
<path fill="none" stroke="#112c5f" stroke-width="2" d="M467,-303.5036C467,-291.2009 467,-274.3802 467,-258.4542" style=""></path>
<polygon fill="#112c5f" stroke="#112c5f" stroke-width="2" points="470.5001,-258.1741 467,-248.1741 463.5001,-258.1741 470.5001,-258.1741" style=""></polygon>
</g>
<!-- cell_type_2 -->
<g id="node16" class="node">
<title>cell_type_2</title>
<g id="a_node16">
<ellipse fill="#d3d247" stroke="#000000" cx="602" cy="-518.6" rx="44.0377" ry="18"></ellipse>
<text text-anchor="middle" x="602" y="-514.4" font-family="Times,serif" font-size="14.00" fill="#000000">cell.type</text>
</g>
</g>
<!-- cell_type_2&#45;&gt;cell_type_0 -->
<g id="edge16" class="edge">
<title style="">cell_type_2-&gt;cell_type_0</title>
<path fill="none" stroke="#38568c" d="M637.3068,-507.6417C670.2138,-496.1279 719.2914,-475.5046 754,-445.6 787.8449,-416.4395 814.1297,-370.5781 827.7351,-343.6212"></path>
</g>
<!-- nd_2&#45;&gt;nd_0 -->
<g id="edge18" class="edge">
<title style="">nd_2-&gt;nd_0</title>
<path fill="none" stroke="#38568c" d="M193.4081,-401.4368C187.2566,-394.8635 180.1187,-386.9925 174,-379.6 163.8722,-367.3637 153.2104,-353.043 145.037,-341.7175"></path>
</g>
<!-- s_2&#45;&gt;DirectedMotion_4858737452384379042 -->
<g id="edge19" class="edge">
<title style="">s_2-&gt;DirectedMotion_4858737452384379042</title>
<path fill="none" stroke="#112c5f" stroke-width="2" d="M283.9641,-398.3216C284.5791,-386.6595 285.3968,-371.1576 286.1352,-357.1569"></path>
<polygon fill="#112c5f" stroke="#112c5f" stroke-width="2" points="289.6481,-357.0021 286.6798,-346.8316 282.6578,-356.6333 289.6481,-357.0021"></polygon>
</g>
<!-- xc_2 -->
<g id="node19" class="node">
<title>xc_2</title>
<g id="a_node19">
<ellipse fill="#d3d247" stroke="#000000" cx="543" cy="-120" rx="27" ry="18"></ellipse>
<text text-anchor="middle" x="543" y="-115.8" font-family="Times,serif" font-size="14.00" fill="#000000">xc</text>
</g>
</g>
<!-- xc_2&#45;&gt;Logger_0_10 -->
<g id="edge22" class="edge">
<title style="">xc_2-&gt;Logger_0_10</title>
<path fill="none" stroke="#112c5f" stroke-width="2" d="M558.6107,-105.094C563.3086,-101.125 568.6451,-97.0878 574,-94 608.8395,-73.9103 652.6378,-59.2401 683.1319,-50.4933"></path>
<polygon fill="#112c5f" stroke="#112c5f" stroke-width="2" points="684.2422,-53.8172 692.9312,-47.7548 682.3582,-47.0755 684.2422,-53.8172"></polygon>
</g>
<!-- System_4373609053296351035&#45;&gt;xc_2 -->
<g id="edge8" class="edge">
<title style="">System_4373609053296351035-&gt;xc_2</title>
<path fill="none" stroke="#8f100d" stroke-width="3" d="M497.9121,-173.9868C506.3444,-163.8902 515.2595,-153.2156 522.9162,-144.0478" style=""></path>
<polygon fill="#8f100d" stroke="#8f100d" stroke-width="3" points="525.8202,-146.0307 529.544,-136.1118 520.4475,-141.5435 525.8202,-146.0307" style=""></polygon>
</g>
</g>
</svg>