<?xml version="1.0" encoding="UTF-8" standalone="no"?> <svg xmlns="http://www.w3.org/2000/svg" xmlns:xlink="http://www.w3.org/1999/xlink" width="762pt" height="540pt" viewBox="0.00 0.00 762.00 540.20">
<g id="graph0" class="graph" transform="scale(1 1) rotate(0) translate(4 536.2)">
<title>%0</title>
<polygon fill="#ffffff" stroke="transparent" points="-4,4 -4,-536.2 758,-536.2 758,4 -4,4"></polygon>
<g id="clust1" class="cluster">
<title>cluster</title>
<polygon fill="#234178" fill-opacity="0.184314" stroke="#000000" points="8,-8 8,-524.2 746,-524.2 746,-8 8,-8"></polygon>
<text text-anchor="middle" x="377" y="-507.6" font-family="Times,serif" font-size="14.00" fill="#000000">Global</text>
</g>
<g id="clust2" class="cluster">
<title>cluster_1</title>
<polygon fill="#234178" fill-opacity="0.184314" stroke="#000000" points="33,-353.4 33,-491.4 103,-491.4 103,-353.4 33,-353.4"></polygon>
</g>
<g id="clust5" class="cluster">
<title>cluster_4</title>
<polygon fill="#234178" fill-opacity="0.184314" stroke="#000000" points="122,-175.5 122,-345.4 506,-345.4 506,-175.5 122,-175.5"></polygon>
<text text-anchor="middle" x="314" y="-328.8" font-family="Times,serif" font-size="14.00" fill="#000000">CellType[neutrophil]</text>
</g>
<g id="clust6" class="cluster">
<title>cluster_cpm4</title>
<polygon fill="#234178" fill-opacity="0.184314" stroke="#000000" points="187,-183.5 187,-261.3 303,-261.3 303,-183.5 187,-183.5"></polygon>
<text text-anchor="middle" x="245" y="-244.7" font-family="Times,serif" font-size="14.00" fill="#000000">CPM components</text>
</g>
<!-- Gnuplotter_0_5 -->
<g id="node3" class="node">
<title>Gnuplotter_0_5</title>
<g id="a_node3">">
<polygon fill="#fffea3" stroke="transparent" points="100,-152 28,-152 28,-102 100,-102 100,-152"></polygon>
<text text-anchor="start" x="31.507" y="-134.5" font-family="times" font-size="15.00" fill="#000000">Gnuplotter</text>
<text text-anchor="start" x="60.25" y="-110.5" font-family="times" font-size="15.00" fill="#000000">5</text>
<polygon fill="#000000" stroke="#000000" points="28,-127 28,-127 100,-127 100,-127 28,-127"></polygon>
<polygon fill="none" stroke="#000000" points="28,-102 28,-152 100,-152 100,-102 28,-102"></polygon>
</g>
</g><g id="node2" class="node">
<title>CPM_0_0_00375</title>
<g id="a_node2">
<polygon fill="#fffea3" stroke="#000000" points="531.25,-269.8 531.25,-319.4 592.75,-319.4 592.75,-269.8 531.25,-269.8"></polygon>
<text text-anchor="middle" x="562" y="-302.8" font-family="Times,serif" font-size="14.00" fill="#000000">CPM</text>
<polyline fill="none" stroke="#000000" points="531.25,-294.6 592.75,-294.6 "></polyline>
<text text-anchor="middle" x="562" y="-278" font-family="Times,serif" font-size="14.00" fill="#000000">0.00375</text>
</g>
</g>
<!-- CPM_0_1 -->

<!-- cell_center_0 -->
<g id="node5" class="node">
<title>cell_center_0</title>
<ellipse fill="#b5b426" stroke="#000000" cx="683" cy="-210" rx="50.9588" ry="18"></ellipse>
<ellipse fill="none" stroke="#000000" cx="683" cy="-210" rx="54.9572" ry="22"></ellipse>
<text text-anchor="middle" x="683" y="-205.8" font-family="Times,serif" font-size="14.00" fill="#000000">cell.center</text>
</g><g id="edge2" class="edge">
<title>CPM_0_0_00375-&gt;cell_center_0</title>
<path fill="none" stroke="#8f100d" stroke-width="3" d="M592.9821,-277.6083C601.568,-272.6033 610.7831,-266.9482 619,-261.3 630.019,-253.7257 641.5649,-244.8061 651.7688,-236.5471"></path>
<polygon fill="#8f100d" stroke="#8f100d" stroke-width="3" points="654.1142,-239.1501 659.6287,-230.1035 649.6762,-233.7367 654.1142,-239.1501"></polygon>
</g>
<!-- CPM_0_1&#45;&gt;cell_center_0 -->

<!-- cell_type_0 -->
<g id="node9" class="node">
<title>cell_type_0</title>
<ellipse fill="#d3d247" stroke="#000000" cx="562" cy="-210" rx="44.0361" ry="18"></ellipse>
<ellipse fill="none" stroke="#000000" cx="562" cy="-210" rx="48.0377" ry="22"></ellipse>
<text text-anchor="middle" x="562" y="-205.8" font-family="Times,serif" font-size="14.00" fill="#000000">cell.type</text>
</g><g id="edge3" class="edge">
<title>CPM_0_0_00375-&gt;cell_type_0</title>
<path fill="none" stroke="#8f100d" stroke-width="3" d="M562,-269.6748C562,-261.127 562,-251.4335 562,-242.3821"></path>
<polygon fill="#8f100d" stroke="#8f100d" stroke-width="3" points="565.5001,-242.1585 562,-232.1586 558.5001,-242.1586 565.5001,-242.1585"></polygon>
</g>
<!-- CPM_0_1&#45;&gt;cell_type_0 -->

<!-- Chemotaxis_4 -->
<g id="node12" class="node">
<title>Chemotaxis_4</title>
<g id="a_node12">
<path fill="#fffea3" stroke="#000000" d="M215.5589,-192C215.5589,-192 274.4411,-192 274.4411,-192 280.4411,-192 286.4411,-198 286.4411,-204 286.4411,-204 286.4411,-216 286.4411,-216 286.4411,-222 280.4411,-228 274.4411,-228 274.4411,-228 215.5589,-228 215.5589,-228 209.5589,-228 203.5589,-222 203.5589,-216 203.5589,-216 203.5589,-204 203.5589,-204 203.5589,-198 209.5589,-192 215.5589,-192"></path>
<text text-anchor="middle" x="245" y="-205.8" font-family="Times,serif" font-size="14.00" fill="#000000">Chemotaxis</text>
</g>
</g><g id="edge1" class="edge">
<title>CPM_0_0_00375-&gt;Chemotaxis_4</title>
<path fill="none" stroke="#38568c" stroke-dasharray="5,2" d="M531.1744,-277.0191C524.3945,-273.8945 517.1108,-271.0747 510,-269.3 486.2674,-263.3768 312.0938,-271.7969 290,-261.3"></path>
</g>
<!-- CPM_0_1&#45;&gt;Chemotaxis_4 -->

<!-- Logger_0_1 -->
<g id="node1" class="node">
<title>Logger_0_1</title>
<g id="a_node1">">
<polygon fill="#fffea3" stroke="transparent" points="638.5,-66 587.5,-66 587.5,-16 638.5,-16 638.5,-66"></polygon>
<text text-anchor="start" x="591.8423" y="-48.5" font-family="times" font-size="15.00" fill="#000000">Logger</text>
<text text-anchor="start" x="609.75" y="-24.5" font-family="times" font-size="15.00" fill="#000000">1</text>
<polygon fill="#000000" stroke="#000000" points="588,-41 588,-41 639,-41 639,-41 588,-41"></polygon>
<polygon fill="none" stroke="#000000" points="587.5,-16 587.5,-66 638.5,-66 638.5,-16 587.5,-16"></polygon>
</g>
</g>
<!-- c_0 -->
<g id="node4" class="node">
<title>c_0</title>
<g id="a_node4">
<ellipse fill="#d3d247" stroke="#000000" cx="68" cy="-294.6" rx="27" ry="18"></ellipse>
<text text-anchor="middle" x="68" y="-290.4" font-family="Times,serif" font-size="14.00" fill="#000000">c</text>
</g>
</g>
<!-- c_0&#45;&gt;Gnuplotter_0_5 -->
<g id="edge6" class="edge">
<title>c_0-&gt;Gnuplotter_0_5</title>
<path fill="none" stroke="#112c5f" stroke-width="2" d="M47.003,-283.0454C39.2194,-277.5658 31.2571,-270.242 27,-261.3 10.6082,-226.8695 14.793,-211.6267 27,-175.5 28.7587,-170.2952 31.3239,-165.2083 34.2965,-160.4052"></path>
<polygon fill="#112c5f" stroke="#112c5f" stroke-width="2" points="37.2232,-162.3261 40.0012,-152.102 31.4536,-158.3622 37.2232,-162.3261"></polygon>
</g>
<!-- c_0&#45;&gt;Chemotaxis_4 -->
<g id="edge5" class="edge">
<title>c_0-&gt;Chemotaxis_4</title>
<path fill="none" stroke="#112c5f" stroke-width="2" d="M88.2115,-282.2135C97.0471,-277.3778 107.7238,-272.2866 118,-269.3 153.1625,-259.0805 167.4194,-278.0137 200,-261.3 211.1695,-255.5701 220.8021,-245.7948 228.2565,-236.3045"></path>
<polygon fill="#112c5f" stroke="#112c5f" stroke-width="2" points="231.146,-238.2827 234.2306,-228.1468 225.4984,-234.1469 231.146,-238.2827"></polygon>
</g>
<!-- cell_center_x_0 -->
<g id="node6" class="node">
<title>cell_center_x_0</title>
<ellipse fill="#d3d247" stroke="#000000" cx="546" cy="-127" rx="58.4435" ry="18"></ellipse>
<text text-anchor="middle" x="546" y="-122.8" font-family="Times,serif" font-size="14.00" fill="#000000">cell.center.x</text>
</g>
<!-- cell_center_0&#45;&gt;cell_center_x_0 -->
<g id="edge7" class="edge">
<title>cell_center_0-&gt;cell_center_x_0</title>
<path fill="none" stroke="#38568c" stroke-dasharray="5,2" d="M652.5953,-191.5796C628.6307,-177.061 595.5451,-157.0164 572.6181,-143.1263"></path>
</g>
<!-- cell_center_y_0 -->
<g id="node7" class="node">
<title>cell_center_y_0</title>
<ellipse fill="#d3d247" stroke="#000000" cx="680" cy="-127" rx="58.4435" ry="18"></ellipse>
<text text-anchor="middle" x="680" y="-122.8" font-family="Times,serif" font-size="14.00" fill="#000000">cell.center.y</text>
</g>
<!-- cell_center_0&#45;&gt;cell_center_y_0 -->
<g id="edge8" class="edge">
<title>cell_center_0-&gt;cell_center_y_0</title>
<path fill="none" stroke="#38568c" stroke-dasharray="5,2" d="M682.1961,-187.7575C681.7136,-174.4083 681.1076,-157.6433 680.6545,-145.1073"></path>
</g>
<!-- cell_center_x_0&#45;&gt;Logger_0_1 -->
<g id="edge10" class="edge">
<title>cell_center_x_0-&gt;Logger_0_1</title>
<path fill="none" stroke="#112c5f" stroke-width="2" d="M559.8824,-109.1807C567.7304,-99.1072 577.7962,-86.187 587.0509,-74.3078"></path>
<polygon fill="#112c5f" stroke="#112c5f" stroke-width="2" points="589.9065,-76.3375 593.2912,-66.2978 584.3844,-72.0354 589.9065,-76.3375"></polygon>
</g>
<!-- cell_center_y_0&#45;&gt;Logger_0_1 -->
<g id="edge11" class="edge">
<title>cell_center_y_0-&gt;Logger_0_1</title>
<path fill="none" stroke="#112c5f" stroke-width="2" d="M666.1176,-109.1807C658.2696,-99.1072 648.2038,-86.187 638.9491,-74.3078"></path>
<polygon fill="#112c5f" stroke="#112c5f" stroke-width="2" points="641.6156,-72.0354 632.7088,-66.2978 636.0935,-76.3375 641.6156,-72.0354"></polygon>
</g>
<!-- cell_id_0 -->
<g id="node8" class="node">
<title>cell_id_0</title>
<ellipse fill="#d3d247" stroke="#000000" cx="75" cy="-210" rx="34.8174" ry="18"></ellipse>
<ellipse fill="none" stroke="#000000" cx="75" cy="-210" rx="38.8075" ry="22"></ellipse>
<text text-anchor="middle" x="75" y="-205.8" font-family="Times,serif" font-size="14.00" fill="#000000">cell.id</text>
</g>
<!-- cell_id_0&#45;&gt;Gnuplotter_0_5 -->
<g id="edge12" class="edge">
<title>cell_id_0-&gt;Gnuplotter_0_5</title>
<path fill="none" stroke="#112c5f" stroke-width="2" d="M72.0522,-187.7575C71.0093,-179.8884 69.8091,-170.8324 68.6592,-162.1554"></path>
<polygon fill="#112c5f" stroke="#112c5f" stroke-width="2" points="72.1283,-161.6907 67.3447,-152.2373 65.1889,-162.6104 72.1283,-161.6907"></polygon>
</g>
<!-- System_1_0_5 -->
<g id="node10" class="node">
<title>System_1_0_5</title>
<g id="a_node10">">
<polygon fill="#fffea3" stroke="transparent" points="94,-411.4 42,-411.4 42,-361.4 94,-361.4 94,-411.4"></polygon>
<text text-anchor="start" x="45.9163" y="-393.9" font-family="times" font-size="15.00" fill="#000000">System</text>
<text text-anchor="start" x="58.625" y="-369.9" font-family="times" font-size="15.00" fill="#000000">0.5</text>
<polygon fill="#000000" stroke="#000000" points="42,-386.4 42,-386.4 94,-386.4 94,-386.4 42,-386.4"></polygon>
<polygon fill="none" stroke="#000000" points="42,-361.4 42,-411.4 94,-411.4 94,-361.4 42,-361.4"></polygon>
</g>
</g>
<!-- System_1_0_5&#45;&gt;c_0 -->
<g id="edge4" class="edge">
<title>System_1_0_5-&gt;c_0</title>
<path fill="none" stroke="#8f100d" stroke-width="3" d="M68,-361.3152C68,-349.4081 68,-335.1299 68,-322.8433"></path>
<polygon fill="#8f100d" stroke="#8f100d" stroke-width="3" points="71.5001,-322.6682 68,-312.6682 64.5001,-322.6683 71.5001,-322.6682"></polygon>
</g>
<!-- k_1 -->
<g id="node11" class="node">
<title>k_1</title>
<g id="a_node11">
<ellipse fill="#d3d247" stroke="#000000" cx="68" cy="-465.4" rx="27" ry="18"></ellipse>
<text text-anchor="middle" x="68" y="-461.2" font-family="Times,serif" font-size="14.00" fill="#000000">k</text>
</g>
</g>
<!-- k_1&#45;&gt;System_1_0_5 -->
<g id="edge16" class="edge">
<title>k_1-&gt;System_1_0_5</title>
<path fill="none" stroke="#112c5f" stroke-width="2" d="M68,-447.0772C68,-439.4766 68,-430.3908 68,-421.5933"></path>
<polygon fill="#112c5f" stroke="#112c5f" stroke-width="2" points="71.5001,-421.5046 68,-411.5046 64.5001,-421.5047 71.5001,-421.5046"></polygon>
</g>
<!-- cell_center_4 -->
<g id="node13" class="node">
<title>cell_center_4</title>
<ellipse fill="#b5b426" stroke="#000000" cx="447" cy="-294.6" rx="50.9572" ry="18"></ellipse>
<text text-anchor="middle" x="447" y="-290.4" font-family="Times,serif" font-size="14.00" fill="#000000">cell.center</text>
</g>
<!-- cell_center_4&#45;&gt;cell_center_0 -->
<g id="edge9" class="edge">
<title>cell_center_4-&gt;cell_center_0</title>
<path fill="none" stroke="#38568c" stroke-dasharray="5,2" d="M474.8242,-279.4309C483.3151,-275.4585 492.834,-271.6376 502,-269.3 552.5049,-256.4199 570.4432,-280.2442 619,-261.3 635.9806,-254.6751 651.9806,-241.8501 663.7355,-230.6813"></path>
</g>
<!-- cell_id_4 -->
<g id="node14" class="node">
<title>cell_id_4</title>
<ellipse fill="#d3d247" stroke="#000000" cx="165" cy="-294.6" rx="34.8076" ry="18"></ellipse>
<text text-anchor="middle" x="165" y="-290.4" font-family="Times,serif" font-size="14.00" fill="#000000">cell.id</text>
</g>
<!-- cell_id_4&#45;&gt;cell_id_0 -->
<g id="edge13" class="edge">
<title>cell_id_4-&gt;cell_id_0</title>
<path fill="none" stroke="#38568c" stroke-dasharray="5,2" d="M148.0717,-278.6874C133.1013,-264.6153 111.2298,-244.056 95.3188,-229.0996"></path>
</g>
<!-- cell_type_4 -->
<g id="node15" class="node">
<title>cell_type_4</title>
<g id="a_node15">
<ellipse fill="#d3d247" stroke="#000000" cx="334" cy="-294.6" rx="44.0377" ry="18"></ellipse>
<text text-anchor="middle" x="334" y="-290.4" font-family="Times,serif" font-size="14.00" fill="#000000">cell.type</text>
</g>
</g>
<!-- cell_type_4&#45;&gt;cell_type_0 -->
<g id="edge14" class="edge">
<title>cell_type_4-&gt;cell_type_0</title>
<path fill="none" stroke="#38568c" stroke-dasharray="5,2" d="M361.7783,-280.5782C369.8276,-276.7237 378.6878,-272.6784 387,-269.3 432.4686,-250.8199 486.0968,-233.2478 521.8903,-222.0992"></path>
</g>
<!-- chi_4 -->
<g id="node16" class="node">
<title>chi_4</title>
<g id="a_node16">
<ellipse fill="#d3d247" stroke="#000000" cx="245" cy="-294.6" rx="27" ry="18"></ellipse>
<text text-anchor="middle" x="245" y="-290.4" font-family="Times,serif" font-size="14.00" fill="#000000">chi</text>
</g>
</g>
<!-- chi_4&#45;&gt;Chemotaxis_4 -->
<g id="edge15" class="edge">
<title>chi_4-&gt;Chemotaxis_4</title>
<path fill="none" stroke="#112c5f" stroke-width="2" d="M245,-276.2431C245,-265.1926 245,-250.8916 245,-238.4069"></path>
<polygon fill="#112c5f" stroke="#112c5f" stroke-width="2" points="248.5001,-238.0304 245,-228.0305 241.5001,-238.0305 248.5001,-238.0304"></polygon>
</g>
</g>
</svg>